<?xml version="1.0" encoding="UTF-8"?>
<svg width="700pt" height="700pt" version="1.1" viewBox="0 0 700 700" xmlns="http://www.w3.org/2000/svg">
 <g>
  <path d="m280 210c0 9.6641-7.8359 17.5-17.5 17.5s-17.5-7.8359-17.5-17.5 7.8359-17.5 17.5-17.5 17.5 7.8359 17.5 17.5"/>
  <path d="m577.5 420h-70c-9.6641 0-17.5 7.8281-17.5 17.5v17.5h-87.5c0-9.6719-7.8359-17.5-17.5-17.5h-17.5v-35h-35v35h-17.5c-9.6641 0-17.5 7.8281-17.5 17.5h-87.5v-17.5c0-9.6719-7.8359-17.5-17.5-17.5h-70c-9.6641 0-17.5 7.8281-17.5 17.5v70c0 9.6719 7.8359 17.5 17.5 17.5h70c9.6641 0 17.5-7.8281 17.5-17.5v-17.5h87.5c0 9.6719 7.8359 17.5 17.5 17.5h70c9.6641 0 17.5-7.8281 17.5-17.5h87.5v17.5c0 9.6719 7.8359 17.5 17.5 17.5h70c9.6641 0 17.5-7.8281 17.5-17.5v-70c0-9.6719-7.8359-17.5-17.5-17.5z"/>
  <path d="m266.82 273.56c-42.645-8.2461-75.859-22.613-91.816-40.098 10.082 76.777 68.723 138.08 143.9 151.54-24.43-18.887-43.43-59.504-52.082-111.44z"/>
  <path d="m350 281.13c-22.848 0-44.652-1.6328-64.844-4.5352 11.641 63.113 38.918 102.34 64.844 102.34s53.207-39.223 64.848-102.34c-20.195 2.8984-42 4.5352-64.848 4.5352z"/>
  <path d="m433.18 273.56c-8.6523 51.938-27.652 92.555-52.082 111.44 75.176-13.461 133.82-74.762 143.9-151.54-15.957 17.484-49.172 31.852-91.816 40.098z"/>
  <path d="m433.18 146.44c42.645 8.2422 75.859 22.609 91.816 40.094-10.082-76.773-68.723-138.07-143.9-151.54 24.43 18.887 43.43 59.5 52.082 111.44z"/>
  <path d="m318.9 35c-75.176 13.461-133.82 74.762-143.9 151.54 15.957-17.484 49.172-31.852 91.816-40.094 8.6523-51.941 27.652-92.555 52.082-111.44z"/>
  <path d="m350 41.07c-25.926 0-53.203 39.223-64.844 102.33 20.191-2.8984 41.996-4.5312 64.844-4.5312s44.652 1.6328 64.848 4.5352c-11.641-63.113-38.922-102.34-64.848-102.34z"/>
  <path d="m227.5 210c0 9.6641-7.8359 17.5-17.5 17.5s-17.5-7.8359-17.5-17.5 7.8359-17.5 17.5-17.5 17.5 7.8359 17.5 17.5"/>
  <path d="m315.02 262.5c-1.4102 0-2.8359-0.17188-4.2656-0.53125-9.375-2.3398-15.074-11.844-12.73-21.207l17.5-70c2.3516-9.3984 11.867-15.09 21.227-12.73 9.375 2.3398 15.074 11.844 12.73 21.207l-17.5 70c-1.9883 7.9648-9.125 13.262-16.961 13.262z"/>
  <path d="m367.51 262.5c-1.4102 0-2.8359-0.17188-4.2656-0.53125-9.375-2.3398-15.074-11.844-12.73-21.207l17.5-70c2.3516-9.3984 11.867-15.09 21.227-12.73 9.375 2.3398 15.074 11.844 12.73 21.207l-17.5 70c-1.9883 7.9648-9.125 13.262-16.961 13.262z"/>
 </g>
</svg>
